https://xiaohaixb@bitbucket.org/lexlxxm/xb-game.git
展示站测试服务器：216.118.241.102	2162	3dqsxkP3Ruj9K@e#IZ1O*wI4bl#uWYp^GdMQTt
聊天室测试服务器：182.16.116.66	15281 	lsNiBqxsxxVHUkC3jU8=
admin.336.com     root	oy188PSc3Hjm1BNh122oSz+xfdrgab
xbzhanshi.com/agent  t006admin 123456
 t006admin wX4RSfNL9eV9xbESeWeWSw
/data/nginx/html/xinbo.info
/lottery/caiPiaoTemplateFromFreemarker1_1.do
https://www.998855l.com:7822/home  
账号 qscf123123  密码123123a


administrator idc/@0509 202.3.134.165:9833


xbqileqe@gmail.com xbPT987b123x  PTx1123xx11b

1集群 第二位 188